0.0010105202178546922 0.001228924612354078 0.001005601556867245 
0.0010086346405709513 0.001584011507755292 9.194334748622455E-4 
9.694783574600209E-4 0.0018735497120092467 9.252724063497108E-4 
0.0010009133060085243 0.0010923820453725554 0.0010064171085872858 
9.771611446858807E-4 0.0013305324338487785 9.83546963110414E-4 
9.896935669739808E-4 0.0013340749919162145 9.424399149008983E-4 
0.0010329556820839775 0.001205893222689057 0.0010144669636482585 
9.76701744010919E-4 0.0011830923700676163 9.883005662780356E-4 
9.607291909659877E-4 0.0013533259115916976 0.0010222626735684674 
9.902656724639289E-4 0.0029743949318591302 0.0010087010055446594 
0.0010640429951087208 0.0018741621781887513 9.758049543662268E-4 
9.741043258373595E-4 0.0012588675396071939 9.815055772158078E-4 
0.0010274605120795298 9.690019143637844E-4 9.826522570568182E-4 
0.001006709419019053 0.0016424389724046687 9.887498991737842E-4 
0.0010195286339953074 0.001133845283354312 9.994972911535063E-4 
9.671151617151126E-4 0.0015107554191201207 9.66326904103057E-4 
9.76772951507632E-4 0.001172425521881004 0.0010199278693145482 
9.610664278604068E-4 0.0014877087392270365 9.537810760929687E-4 
0.0010213990689626345 0.0010155213529119752 9.970251389309372E-4 
9.717739699993396E-4 0.0013810971021479873 9.97299080086803E-4 
9.814834533590465E-4 0.0015013621047343616 9.470630138615379E-4 
9.616812815369255E-4 0.0011547773518327494 0.001017103464940695 
9.891083374347258E-4 0.0010655288092340778 9.466183621987896E-4 
9.748603673220397E-4 0.0015771061083317628 9.390180252430205E-4 
0.001044274313108066 0.002860597615227768 9.715021588451189E-4 
9.999021511152863E-4 0.001074293943289917 0.001039222617696468 
0.0010125636551222914 0.0011235644535005716 0.001003621549175725 
0.0010020856152254617 0.001192539443571617 9.824203202089962E-4 
9.171996572085266E-4 0.0013189265036112352 9.412530520592724E-4 
0.0010004884773958218 0.0012616290337885104 0.0010045761226851995 
